ISO-10303-21;
HEADER;

/* File generated by HOOPS Exchange Version 14.0.0 */

FILE_DESCRIPTION(('HOOPS Exchange Step'),'2;1');

FILE_NAME('/tmp/3a23a42010056cd44da4feb40b9138fa20211009-1-qt7q2j.SLDPRT.step',
'2021-10-09T21:42:11+00:00',
('root'),
('Unknown organisation'),
'HOOPS Exchange 2021.0',
'HOOPS Exchange',
'Unknown authorisation');

FILE_SCHEMA( ('AUTOMOTIVE_DESIGN { 1 0 10303 214 1 1 1 1 }') );

ENDSEC;

DATA;
#3=(NAMED_UNIT(*)PLANE_ANGLE_UNIT()SI_UNIT($,.RADIAN.));
#4=PLANE_ANGLE_MEASURE_WITH_UNIT(PLANE_ANGLE_MEASURE(0.0174532925),#3);
#5=(CONVERSION_BASED_UNIT('DEGREE',#4)NAMED_UNIT(#6)PLANE_ANGLE_UNIT());
#6=DIMENSIONAL_EXPONENTS(0.,0.,0.,0.,0.,0.,0.);
#7=(NAMED_UNIT(*)SI_UNIT($,.STERADIAN.)SOLID_ANGLE_UNIT());
#8=(LENGTH_UNIT()NAMED_UNIT(*)SI_UNIT(.MILLI.,.METRE.));
#9=UNCERTAINTY_MEASURE_WITH_UNIT(LENGTH_MEASURE(1.000000E-05),#8,'DISTANCE_ACCURACY_VALUE','Maximum Tolerance applied to model');
#10=(GEOMETRIC_REPRESENTATION_CONTEXT(3)GLOBAL_UNCERTAINTY_ASSIGNED_CONTEXT((#9))GLOBAL_UNIT_ASSIGNED_CONTEXT((#8,#5,#7))REPRESENTATION_CONTEXT('','3a23a42010056cd44da4feb40b9138fa20211009-1-qt7q2j'));
#12=CARTESIAN_POINT('',(0.,0.,0.));
#13=DIRECTION('',(0.,0.,1.));
#14=DIRECTION('',(1.,0.,0.));
#15=AXIS2_PLACEMENT_3D('',#12,#13,#14);
#26=(NAMED_UNIT(*)PLANE_ANGLE_UNIT()SI_UNIT($,.RADIAN.));
#27=PLANE_ANGLE_MEASURE_WITH_UNIT(PLANE_ANGLE_MEASURE(0.0174532925),#26);
#28=(CONVERSION_BASED_UNIT('DEGREE',#27)NAMED_UNIT(#29)PLANE_ANGLE_UNIT());
#29=DIMENSIONAL_EXPONENTS(0.,0.,0.,0.,0.,0.,0.);
#30=(NAMED_UNIT(*)SI_UNIT($,.STERADIAN.)SOLID_ANGLE_UNIT());
#31=(LENGTH_UNIT()NAMED_UNIT(*)SI_UNIT(.MILLI.,.METRE.));
#32=UNCERTAINTY_MEASURE_WITH_UNIT(LENGTH_MEASURE(1.000000E-05),#31,'DISTANCE_ACCURACY_VALUE','Maximum Tolerance applied to model');
#33=(GEOMETRIC_REPRESENTATION_CONTEXT(3)GLOBAL_UNCERTAINTY_ASSIGNED_CONTEXT((#32))GLOBAL_UNIT_ASSIGNED_CONTEXT((#31,#28,#30))REPRESENTATION_CONTEXT('','Default'));
#35=CARTESIAN_POINT('',(0.,0.,0.));
#36=DIRECTION('',(0.,0.,1.));
#37=DIRECTION('',(1.,0.,0.));
#38=AXIS2_PLACEMENT_3D('',#35,#36,#37);
#49=CARTESIAN_POINT('',(0.,0.,0.));
#50=DIRECTION('',(0.,0.,1.));
#51=DIRECTION('',(1.,0.,-0.));
#52=AXIS2_PLACEMENT_3D('',#49,#50,#51);
#53=ITEM_DEFINED_TRANSFORMATION('','',#52,#38);
#54=(REPRESENTATION_RELATIONSHIP('','',#39,#16)REPRESENTATION_RELATIONSHIP_WITH_TRANSFORMATION(#53)SHAPE_REPRESENTATION_RELATIONSHIP());
#55=NEXT_ASSEMBLY_USAGE_OCCURRENCE('Default_1','Default','Default',#25,#48,$);
#56=PRODUCT_DEFINITION_SHAPE('','',#55);
#57=CONTEXT_DEPENDENT_SHAPE_REPRESENTATION(#54,#56);
#59=CARTESIAN_POINT('',(0.,0.,10.));
#60=DIRECTION('',(0.,0.,1.));
#61=DIRECTION('',(1.,0.,0.));
#62=AXIS2_PLACEMENT_3D('',#59,#60,#61);
#63=PLANE('',#62);
#64=CARTESIAN_POINT('',(100.,-50.,10.));
#65=VERTEX_POINT('',#64);
#66=CARTESIAN_POINT('',(100.,50.,10.));
#67=VERTEX_POINT('',#66);
#68=CARTESIAN_POINT('',(100.,-50.,10.));
#69=DIRECTION('',(0.,1.,0.));
#70=VECTOR('',#69,100.);
#71=LINE('',#68,#70);
#72=EDGE_CURVE('',#65,#67,#71,.T.);
#73=ORIENTED_EDGE('',*,*,#72,.T.);
#74=CARTESIAN_POINT('',(-100.,50.,10.));
#75=VERTEX_POINT('',#74);
#76=CARTESIAN_POINT('',(100.,50.,10.));
#77=DIRECTION('',(-1.,0.,0.));
#78=VECTOR('',#77,200.);
#79=LINE('',#76,#78);
#80=EDGE_CURVE('',#67,#75,#79,.T.);
#81=ORIENTED_EDGE('',*,*,#80,.T.);
#82=CARTESIAN_POINT('',(-100.,-50.,10.));
#83=VERTEX_POINT('',#82);
#84=CARTESIAN_POINT('',(-100.,50.,10.));
#85=DIRECTION('',(0.,-1.,0.));
#86=VECTOR('',#85,100.);
#87=LINE('',#84,#86);
#88=EDGE_CURVE('',#75,#83,#87,.T.);
#89=ORIENTED_EDGE('',*,*,#88,.T.);
#90=CARTESIAN_POINT('',(-100.,-50.,10.));
#91=DIRECTION('',(1.,-0.,0.));
#92=VECTOR('',#91,200.);
#93=LINE('',#90,#92);
#94=EDGE_CURVE('',#83,#65,#93,.T.);
#95=ORIENTED_EDGE('',*,*,#94,.T.);
#96=EDGE_LOOP('',(#73,#81,#89,#95));
#97=FACE_BOUND('',#96,.T.);
#98=CARTESIAN_POINT('',(-20.,0.,10.));
#99=VERTEX_POINT('',#98);
#100=CARTESIAN_POINT('',(20.,-0.,10.));
#101=VERTEX_POINT('',#100);
#102=CARTESIAN_POINT('',(0.,0.,10.));
#103=DIRECTION('',(0.,0.,1.));
#104=DIRECTION('',(1.,0.,-0.));
#105=AXIS2_PLACEMENT_3D('',#102,#103,#104);
#106=CIRCLE('',#105,20.);
#107=EDGE_CURVE('',#99,#101,#106,.T.);
#108=ORIENTED_EDGE('',*,*,#107,.F.);
#109=CARTESIAN_POINT('',(0.,0.,10.));
#110=DIRECTION('',(0.,0.,1.));
#111=DIRECTION('',(1.,0.,-0.));
#112=AXIS2_PLACEMENT_3D('',#109,#110,#111);
#113=CIRCLE('',#112,20.);
#114=EDGE_CURVE('',#101,#99,#113,.T.);
#115=ORIENTED_EDGE('',*,*,#114,.F.);
#116=EDGE_LOOP('',(#108,#115));
#117=FACE_BOUND('',#116,.T.);
#118=ADVANCED_FACE('',(#97,#117),#63,.T.);
#119=CARTESIAN_POINT('',(0.,0.,0.));
#120=DIRECTION('',(0.,0.,1.));
#121=DIRECTION('',(1.,0.,0.));
#122=AXIS2_PLACEMENT_3D('',#119,#120,#121);
#123=PLANE('',#122);
#124=CARTESIAN_POINT('',(100.,-50.,0.));
#125=VERTEX_POINT('',#124);
#126=CARTESIAN_POINT('',(100.,50.,0.));
#127=VERTEX_POINT('',#126);
#128=CARTESIAN_POINT('',(100.,-50.,0.));
#129=DIRECTION('',(0.,1.,0.));
#130=VECTOR('',#129,100.);
#131=LINE('',#128,#130);
#132=EDGE_CURVE('',#125,#127,#131,.T.);
#133=ORIENTED_EDGE('',*,*,#132,.F.);
#134=CARTESIAN_POINT('',(-100.,-50.,0.));
#135=VERTEX_POINT('',#134);
#136=CARTESIAN_POINT('',(-100.,-50.,0.));
#137=DIRECTION('',(1.,-0.,0.));
#138=VECTOR('',#137,200.);
#139=LINE('',#136,#138);
#140=EDGE_CURVE('',#135,#125,#139,.T.);
#141=ORIENTED_EDGE('',*,*,#140,.F.);
#142=CARTESIAN_POINT('',(-100.,50.,0.));
#143=VERTEX_POINT('',#142);
#144=CARTESIAN_POINT('',(-100.,50.,0.));
#145=DIRECTION('',(0.,-1.,0.));
#146=VECTOR('',#145,100.);
#147=LINE('',#144,#146);
#148=EDGE_CURVE('',#143,#135,#147,.T.);
#149=ORIENTED_EDGE('',*,*,#148,.F.);
#150=CARTESIAN_POINT('',(100.,50.,0.));
#151=DIRECTION('',(-1.,0.,0.));
#152=VECTOR('',#151,200.);
#153=LINE('',#150,#152);
#154=EDGE_CURVE('',#127,#143,#153,.T.);
#155=ORIENTED_EDGE('',*,*,#154,.F.);
#156=EDGE_LOOP('',(#133,#141,#149,#155));
#157=FACE_BOUND('',#156,.T.);
#158=CARTESIAN_POINT('',(20.,-0.,0.));
#159=VERTEX_POINT('',#158);
#160=CARTESIAN_POINT('',(-20.,0.,0.));
#161=VERTEX_POINT('',#160);
#162=CARTESIAN_POINT('',(0.,0.,0.));
#163=DIRECTION('',(0.,0.,1.));
#164=DIRECTION('',(1.,0.,0.));
#165=AXIS2_PLACEMENT_3D('',#162,#163,#164);
#166=CIRCLE('',#165,20.);
#167=EDGE_CURVE('',#159,#161,#166,.T.);
#168=ORIENTED_EDGE('',*,*,#167,.T.);
#169=CARTESIAN_POINT('',(0.,0.,0.));
#170=DIRECTION('',(0.,0.,1.));
#171=DIRECTION('',(1.,0.,0.));
#172=AXIS2_PLACEMENT_3D('',#169,#170,#171);
#173=CIRCLE('',#172,20.);
#174=EDGE_CURVE('',#161,#159,#173,.T.);
#175=ORIENTED_EDGE('',*,*,#174,.T.);
#176=EDGE_LOOP('',(#168,#175));
#177=FACE_BOUND('',#176,.T.);
#178=ADVANCED_FACE('',(#157,#177),#123,.F.);
#179=CARTESIAN_POINT('',(100.,50.,10.));
#180=DIRECTION('',(-1.,0.,0.));
#181=DIRECTION('',(0.,0.,1.));
#182=AXIS2_PLACEMENT_3D('',#179,#180,#181);
#183=PLANE('',#182);
#184=ORIENTED_EDGE('',*,*,#132,.T.);
#185=CARTESIAN_POINT('',(100.,50.,10.));
#186=DIRECTION('',(0.,0.,-1.));
#187=VECTOR('',#186,10.);
#188=LINE('',#185,#187);
#189=EDGE_CURVE('',#67,#127,#188,.T.);
#190=ORIENTED_EDGE('',*,*,#189,.F.);
#191=ORIENTED_EDGE('',*,*,#72,.F.);
#192=CARTESIAN_POINT('',(100.,-50.,10.));
#193=DIRECTION('',(0.,0.,-1.));
#194=VECTOR('',#193,10.);
#195=LINE('',#192,#194);
#196=EDGE_CURVE('',#65,#125,#195,.T.);
#197=ORIENTED_EDGE('',*,*,#196,.T.);
#198=EDGE_LOOP('',(#184,#190,#191,#197));
#199=FACE_BOUND('',#198,.T.);
#200=ADVANCED_FACE('',(#199),#183,.F.);
#201=CARTESIAN_POINT('',(-100.,50.,10.));
#202=DIRECTION('',(0.,-1.,0.));
#203=DIRECTION('',(0.,0.,-1.));
#204=AXIS2_PLACEMENT_3D('',#201,#202,#203);
#205=PLANE('',#204);
#206=ORIENTED_EDGE('',*,*,#154,.T.);
#207=CARTESIAN_POINT('',(-100.,50.,10.));
#208=DIRECTION('',(0.,0.,-1.));
#209=VECTOR('',#208,10.);
#210=LINE('',#207,#209);
#211=EDGE_CURVE('',#75,#143,#210,.T.);
#212=ORIENTED_EDGE('',*,*,#211,.F.);
#213=ORIENTED_EDGE('',*,*,#80,.F.);
#214=ORIENTED_EDGE('',*,*,#189,.T.);
#215=EDGE_LOOP('',(#206,#212,#213,#214));
#216=FACE_BOUND('',#215,.T.);
#217=ADVANCED_FACE('',(#216),#205,.F.);
#218=CARTESIAN_POINT('',(-100.,50.,10.));
#219=DIRECTION('',(1.,0.,0.));
#220=DIRECTION('',(-0.,1.,0.));
#221=AXIS2_PLACEMENT_3D('',#218,#219,#220);
#222=PLANE('',#221);
#223=ORIENTED_EDGE('',*,*,#148,.T.);
#224=CARTESIAN_POINT('',(-100.,-50.,10.));
#225=DIRECTION('',(0.,0.,-1.));
#226=VECTOR('',#225,10.);
#227=LINE('',#224,#226);
#228=EDGE_CURVE('',#83,#135,#227,.T.);
#229=ORIENTED_EDGE('',*,*,#228,.F.);
#230=ORIENTED_EDGE('',*,*,#88,.F.);
#231=ORIENTED_EDGE('',*,*,#211,.T.);
#232=EDGE_LOOP('',(#223,#229,#230,#231));
#233=FACE_BOUND('',#232,.T.);
#234=ADVANCED_FACE('',(#233),#222,.F.);
#235=CARTESIAN_POINT('',(-100.,-50.,10.));
#236=DIRECTION('',(0.,1.,0.));
#237=DIRECTION('',(-1.,0.,0.));
#238=AXIS2_PLACEMENT_3D('',#235,#236,#237);
#239=PLANE('',#238);
#240=ORIENTED_EDGE('',*,*,#140,.T.);
#241=ORIENTED_EDGE('',*,*,#196,.F.);
#242=ORIENTED_EDGE('',*,*,#94,.F.);
#243=ORIENTED_EDGE('',*,*,#228,.T.);
#244=EDGE_LOOP('',(#240,#241,#242,#243));
#245=FACE_BOUND('',#244,.T.);
#246=ADVANCED_FACE('',(#245),#239,.F.);
#247=CARTESIAN_POINT('',(0.,0.,10.));
#248=DIRECTION('',(0.,0.,-1.));
#249=DIRECTION('',(-1.,0.,0.));
#250=AXIS2_PLACEMENT_3D('',#247,#248,#249);
#251=CYLINDRICAL_SURFACE('',#250,20.);
#252=CARTESIAN_POINT('',(-20.,0.,0.));
#253=DIRECTION('',(-0.,-0.,1.));
#254=VECTOR('',#253,10.);
#255=LINE('',#252,#254);
#256=EDGE_CURVE('',#161,#99,#255,.T.);
#257=ORIENTED_EDGE('',*,*,#256,.F.);
#258=ORIENTED_EDGE('',*,*,#167,.F.);
#259=ORIENTED_EDGE('',*,*,#174,.F.);
#260=ORIENTED_EDGE('',*,*,#256,.T.);
#261=ORIENTED_EDGE('',*,*,#107,.T.);
#262=ORIENTED_EDGE('',*,*,#114,.T.);
#263=EDGE_LOOP('',(#257,#258,#259,#260,#261,#262));
#264=FACE_BOUND('',#263,.T.);
#265=ADVANCED_FACE('',(#264),#251,.F.);
#266=CLOSED_SHELL('',(#118,#178,#200,#217,#234,#246,#265));
#267=MANIFOLD_SOLID_BREP('',#266);
#268=COLOUR_RGB('',1.,1.,0.752941191);
#269=FILL_AREA_STYLE_COLOUR('',#268);
#270=FILL_AREA_STYLE('',(#269));
#271=SURFACE_STYLE_FILL_AREA(#270);
#272=SURFACE_SIDE_STYLE('',(#271));
#273=SURFACE_STYLE_USAGE(.BOTH.,#272);
#274=PRESENTATION_STYLE_ASSIGNMENT((#273));
#58=STYLED_ITEM('',(#274),#267);
#39=SHAPE_REPRESENTATION('Default',(#38),#33);
#40=ADVANCED_BREP_SHAPE_REPRESENTATION('Default',(#267),#33);
#282=SHAPE_REPRESENTATION_RELATIONSHIP('','',#39,#40);
#283=APPLICATION_CONTEXT('data for automotive mechanical design processes');
#284=APPLICATION_PROTOCOL_DEFINITION('international standard','automotive_design',1994,#283);
#285=PRODUCT_CONTEXT('',#283,'mechanical');
#286=PRODUCT_DEFINITION_CONTEXT('part definition',#283,'design');
#47=PRODUCT('Default','Default','',(#285));
#287=PRODUCT_RELATED_PRODUCT_CATEGORY('part','',(#47));
#288=PRODUCT_DEFINITION_FORMATION_WITH_SPECIFIED_SOURCE('','',#47,.NOT_KNOWN.);
#48=PRODUCT_DEFINITION('design','',#288,#286);
#46=PRODUCT_DEFINITION_SHAPE('','',#48);
#289=SHAPE_DEFINITION_REPRESENTATION(#46,#39);
#34=DRAUGHTING_MODEL('',(),#33);
#16=SHAPE_REPRESENTATION('3a23a42010056cd44da4feb40b9138fa20211009-1-qt7q2j',(#15,#52),#10);
#24=PRODUCT('3a23a42010056cd44da4feb40b9138fa20211009-1-qt7q2j','3a23a42010056cd44da4feb40b9138fa20211009-1-qt7q2j','',(#285));
#290=PRODUCT_RELATED_PRODUCT_CATEGORY('part','',(#24));
#291=PRODUCT_DEFINITION_FORMATION_WITH_SPECIFIED_SOURCE('','',#24,.NOT_KNOWN.);
#25=PRODUCT_DEFINITION('design','',#291,#286);
#23=PRODUCT_DEFINITION_SHAPE('','',#25);
#292=SHAPE_DEFINITION_REPRESENTATION(#23,#16);
#11=DRAUGHTING_MODEL('',(),#10);
#1=MECHANICAL_DESIGN_GEOMETRIC_PRESENTATION_REPRESENTATION('',(#58),#10);
ENDSEC;
END-ISO-10303-21;
